\relax 
\@writefile{toc}{\contentsline {section}{\numberline {1}Introduction}{1}}
\@writefile{toc}{\contentsline {section}{\numberline {2}SimpleOpenCL integration}{1}}
\newlabel{tab:one}{{I}{2}}
\@writefile{toc}{\contentsline {subsection}{\numberline {2.1}Issues with the library}{2}}
\@writefile{toc}{\contentsline {section}{\numberline {3}Integration in BOSP}{2}}
\@writefile{toc}{\contentsline {section}{\numberline {4}Test and performance}{2}}
\@writefile{toc}{\contentsline {subsection}{\numberline {4.1}Performance improvement}{2}}
\lastpage{3}
\newlabel{tab:two}{{II}{3}}
\@writefile{toc}{\contentsline {section}{\numberline {5}Conclusions}{3}}
